…
Clean up list
=============

``` r
names(dat) <- c("episode_name", "minutes", "transcriber", "started", "complete", "url", "notes")
# Drop blank row and columns not used in analysis
dat <- dat %>% 
  filter(!is.na(episode_name)) %>%
  select(episode_name, minutes, url) %>%
  mutate(episode_name = str_replace_all(episode_name, "’", "'"))

dat
```

    ## # A tibble: 180 x 3
    ##    episode_name                     minutes url                            
    ##    <chr>                              <dbl> <chr>                          
    ##  1 An Introduction to Friends at t~      13 https://drive.google.com/open?~
    ##  2 Autumn in Hieron 00: We're Not ~     176 https://drive.google.com/open?~
    ##  3 Autumn in Hieron 01: We Have No~      85 https://drive.google.com/open?~
    ##  4 Autumn in Hieron 02: You Found ~     110 https://drive.google.com/open?~
    ##  5 Autumn in Hieron 03: A Podcast ~      87 https://drive.google.com/open?~
    ##  6 Autumn in Hieron 04: Is It Time~     145 https://drive.google.com/open?~
    ##  7 Autumn in Hieron 05: What's a G~      94 https://drive.google.com/open?~
    ##  8 Autumn in Hieron 08: On The Tip~      98 https://drive.google.com/open?~
    ##  9 Autumn in Hieron 09: I'm Not Ha~      87 https://drive.google.com/open?~
    ## 10 Autumn in Hieron 10: Chekhov's ~      56 https://drive.google.com/open?~
    ## # ... with 170 more rows
…
Write out
=========

``` r
dat %>%
  select(filename, season_number, season, episode_number, episode_name, minutes, url) %>%
  print() %>%
  write_csv("meta.csv")
```

    ## # A tibble: 152 x 7
    ##    filename  season_number season episode_number episode_name minutes url  
    ##    <chr>             <dbl> <chr>           <dbl> <chr>          <dbl> <chr>
    ##  1 1.0_00_w~             1 Autum~              0 We're Not C~     176 http~
    ##  2 1.0_01_w~             1 Autum~              1 We Have Not~      85 http~
    ##  3 1.0_02_y~             1 Autum~              2 You Found O~     110 http~
    ##  4 1.0_03_a~             1 Autum~              3 A Podcast A~      87 http~
    ##  5 1.0_04_i~             1 Autum~              4 Is It Time ~     145 http~
    ##  6 1.0_05_w~             1 Autum~              5 What's a Go~      94 http~
    ##  7 1.0_08_o~             1 Autum~              8 On The Tip ~      98 http~
    ##  8 1.0_09_i~             1 Autum~              9 I'm Not Hap~      87 http~
    ##  9 1.0_10_c~             1 Autum~             10 Chekhov's T~      56 http~
    ## 10 1.0_NA_i~             1 Autum~             NA I've Killed~     198 http~
    ## # ... with 142 more rows
