…
``` r
rm(invalid)
```

# Write out

``` r
dat_line %>%
  print() %>%
  write_csv("line.csv")
```

    ## # A tibble: 202,953 x 6
    ##    filename             line speaker text            raw              first_line
    ##    <chr>               <int> <chr>   <chr>           <chr>            <lgl>     
    ##  1 transcripts/autumn~     7 KEITH   "[cross] Yeah,~ "KEITH: [cross]~ TRUE      
    ##  2 transcripts/autumn~     9 ALI     "[cross] Yeah.~ "ALI: [cross] Y~ FALSE     
    ##  3 transcripts/autumn~    11 NICK    "[cross] Okay,~ "NICK: [cross] ~ FALSE     
    ##  4 transcripts/autumn~    13 KEITH   "Everybody— "   "KEITH: Everybo~ FALSE     
    ##  5 transcripts/autumn~    15 AUSTIN  "[cross] Whoa,~ "AUSTIN: [cross~ FALSE     
    ##  6 transcripts/autumn~    17 KEITH   "[cross] Tell ~ "KEITH: [cross]~ FALSE     
    ##  7 transcripts/autumn~    19 JACK    "I'm ready. "   "JACK: I'm read~ FALSE     
    ##  8 transcripts/autumn~    21 NICK    "Ready."        "NICK: Ready."   FALSE     
    ##  9 transcripts/autumn~    23 KEITH   "Are we ready?~ "KEITH: Are we ~ FALSE     
    ## 10 transcripts/autumn~    27 AUSTIN  "Okay."         "AUSTIN: Okay."  FALSE     
    ## # ... with 202,943 more rows
